EESchema Schematic File Version 4
EELAYER 30 0
EELAYER END
$Descr A4 11693 8268
encoding utf-8
Sheet 1 1
Title "RedPill MSP430FR2355"
Date "2021-04-15"
Rev "1.0"
Comp "SKN MOS"
Comment1 ""
Comment2 ""
Comment3 ""
Comment4 ""
$EndDescr
Text Label 900  1400 2    50   ~ 0
PIN_2
Text Label 900  1500 2    50   ~ 0
PIN_1
Text Label 900  3200 2    50   ~ 0
PIN_34
Text Label 900  3300 2    50   ~ 0
PIN_33
Text Label 900  2700 2    50   ~ 0
PIN_32
Text Label 900  2800 2    50   ~ 0
PIN_31
Text Label 900  2900 2    50   ~ 0
PIN_30
Text Label 900  3000 2    50   ~ 0
PIN_29
Text Label 900  1800 2    50   ~ 0
PIN_28
Text Label 900  1900 2    50   ~ 0
PIN_27
Text Label 5850 2900 0    50   ~ 0
PIN_11
Text Label 5850 1700 0    50   ~ 0
PIN_10
Text Label 900  2300 2    50   ~ 0
PIN_38
Text Label 900  2400 2    50   ~ 0
PIN_37
Text Label 900  2500 2    50   ~ 0
PIN_36
Text Label 900  2600 2    50   ~ 0
PIN_35
Text Label 900  2000 2    50   ~ 0
PIN_26
Text Label 900  2100 2    50   ~ 0
PIN_25
Text Label 5850 3200 0    50   ~ 0
PIN_15
Text Label 5850 2600 0    50   ~ 0
PIN_14
Text Label 5850 2700 0    50   ~ 0
PIN_13
Text Label 5850 2800 0    50   ~ 0
PIN_12
Text Label 900  1600 2    50   ~ 0
PIN_40
Text Label 900  1700 2    50   ~ 0
PIN_39
Text Label 5850 1500 0    50   ~ 0
PIN_22
Text Label 5850 1600 0    50   ~ 0
PIN_21
Text Label 5850 2200 0    50   ~ 0
PIN_20
Text Label 5850 2300 0    50   ~ 0
PIN_19
Text Label 5850 1300 0    50   ~ 0
PIN_24
Text Label 5850 3100 0    50   ~ 0
PIN_16
Wire Notes Line
	550  550  550  4250
Wire Notes Line
	6400 4250 6400 550 
Text Notes 700  4200 0    50   ~ 0
MCU Fanout
Wire Wire Line
	7550 3300 8000 3300
Connection ~ 7550 3300
Wire Wire Line
	7150 3000 7400 3000
Wire Wire Line
	7150 3300 7550 3300
Wire Wire Line
	7550 3300 7550 3400
Wire Wire Line
	8000 3000 8000 3300
Connection ~ 7150 3000
Wire Wire Line
	7150 3000 7150 2900
$Comp
L power:GND #PWR?
U 1 1 607B1699
P 7550 3400
AR Path="/606CD10D/607B1699" Ref="#PWR?"  Part="1" 
AR Path="/607B1699" Ref="#PWR07"  Part="1" 
AR Path="/606F48D8/607B1699" Ref="#PWR?"  Part="1" 
F 0 "#PWR07" H 7550 3150 50  0001 C CNN
F 1 "GND" H 7555 3227 50  0000 C CNN
F 2 "" H 7550 3400 50  0001 C CNN
F 3 "" H 7550 3400 50  0001 C CNN
	1    7550 3400
	1    0    0    -1  
$EndComp
$Comp
L Switch:SW_DIP_x01 SW?
U 1 1 607B169F
P 7700 3000
AR Path="/606CD10D/607B169F" Ref="SW?"  Part="1" 
AR Path="/607B169F" Ref="SW1"  Part="1" 
AR Path="/606F48D8/607B169F" Ref="SW?"  Part="1" 
F 0 "SW1" H 7700 3267 50  0000 C CNN
F 1 "SW_DIP_x01" H 7700 3176 50  0000 C CNN
F 2 "RedPill:WSTASVSMTTactSwitch3.0x2.6mm" H 7700 3000 50  0001 C CNN
F 3 "~" H 7700 3000 50  0001 C CNN
	1    7700 3000
	1    0    0    -1  
$EndComp
Wire Wire Line
	7150 2500 7150 2600
Text Label 7150 2500 0    50   ~ 0
Vcc_3.3V
Text Notes 6550 2200 0    50   ~ 0
Voltage Regulator
Wire Wire Line
	8500 1600 8500 1700
Wire Wire Line
	8500 1300 8500 1100
Connection ~ 7550 1100
Wire Wire Line
	7550 1300 7550 1100
Wire Wire Line
	7550 1600 7550 1700
$Comp
L Device:C C?
U 1 1 607C2615
P 7550 1450
AR Path="/607A1840/607C2615" Ref="C?"  Part="1" 
AR Path="/607C2615" Ref="C3"  Part="1" 
F 0 "C3" H 7665 1496 50  0000 L CNN
F 1 "100n" H 7665 1405 50  0000 L CNN
F 2 "Capacitor_SMD:C_0603_1608Metric_Pad1.05x0.95mm_HandSolder" H 7588 1300 50  0001 C CNN
F 3 "~" H 7550 1450 50  0001 C CNN
	1    7550 1450
	1    0    0    -1  
$EndComp
Wire Wire Line
	8500 1100 8900 1100
Wire Wire Line
	8900 1300 8900 1100
Wire Wire Line
	7050 1100 7550 1100
Connection ~ 7050 1100
Wire Wire Line
	7050 1300 7050 1100
Connection ~ 8500 1700
Connection ~ 7550 1700
Wire Wire Line
	7050 1700 7550 1700
$Comp
L Device:C C?
U 1 1 607C2633
P 8500 1450
AR Path="/607A1840/607C2633" Ref="C?"  Part="1" 
AR Path="/607C2633" Ref="C4"  Part="1" 
F 0 "C4" H 8615 1496 50  0000 L CNN
F 1 "100n" H 8615 1405 50  0000 L CNN
F 2 "Capacitor_SMD:C_0603_1608Metric_Pad1.05x0.95mm_HandSolder" H 8538 1300 50  0001 C CNN
F 3 "~" H 8500 1450 50  0001 C CNN
	1    8500 1450
	1    0    0    -1  
$EndComp
$Comp
L power:GND #PWR010
U 1 1 607C2639
P 9300 1850
AR Path="/607C2639" Ref="#PWR010"  Part="1" 
AR Path="/5F566C93/607C2639" Ref="#PWR?"  Part="1" 
AR Path="/606D5C77/607C2639" Ref="#PWR?"  Part="1" 
AR Path="/606F48D8/607C2639" Ref="#PWR?"  Part="1" 
AR Path="/607A1840/607C2639" Ref="#PWR?"  Part="1" 
F 0 "#PWR010" H 9300 1600 50  0001 C CNN
F 1 "GND" H 9305 1677 50  0000 C CNN
F 2 "" H 9300 1850 50  0001 C CNN
F 3 "" H 9300 1850 50  0001 C CNN
	1    9300 1850
	1    0    0    -1  
$EndComp
$Comp
L power:GND #PWR06
U 1 1 607C263F
P 6650 1850
AR Path="/607C263F" Ref="#PWR06"  Part="1" 
AR Path="/5F566C93/607C263F" Ref="#PWR?"  Part="1" 
AR Path="/606D5C77/607C263F" Ref="#PWR?"  Part="1" 
AR Path="/606F48D8/607C263F" Ref="#PWR?"  Part="1" 
AR Path="/607A1840/607C263F" Ref="#PWR?"  Part="1" 
F 0 "#PWR06" H 6650 1600 50  0001 C CNN
F 1 "GND" H 6655 1677 50  0000 C CNN
F 2 "" H 6650 1850 50  0001 C CNN
F 3 "" H 6650 1850 50  0001 C CNN
	1    6650 1850
	1    0    0    -1  
$EndComp
Wire Wire Line
	9300 1100 9500 1100
Wire Wire Line
	9300 1150 9300 1100
Wire Wire Line
	6650 1150 6650 1100
Wire Wire Line
	6650 1550 6650 1450
Wire Wire Line
	9300 1550 9300 1450
$Comp
L Device:R R?
U 1 1 607C264E
P 9300 1700
AR Path="/607A1840/607C264E" Ref="R?"  Part="1" 
AR Path="/607C264E" Ref="R3"  Part="1" 
F 0 "R3" H 9370 1746 50  0000 L CNN
F 1 "1k" H 9370 1655 50  0000 L CNN
F 2 "Resistor_SMD:R_0603_1608Metric_Pad1.05x0.95mm_HandSolder" V 9230 1700 50  0001 C CNN
F 3 "~" H 9300 1700 50  0001 C CNN
	1    9300 1700
	1    0    0    -1  
$EndComp
$Comp
L Device:R R?
U 1 1 607C2654
P 6650 1700
AR Path="/607A1840/607C2654" Ref="R?"  Part="1" 
AR Path="/607C2654" Ref="R1"  Part="1" 
F 0 "R1" H 6720 1746 50  0000 L CNN
F 1 "1k" H 6720 1655 50  0000 L CNN
F 2 "Resistor_SMD:R_0603_1608Metric_Pad1.05x0.95mm_HandSolder" V 6580 1700 50  0001 C CNN
F 3 "~" H 6650 1700 50  0001 C CNN
	1    6650 1700
	1    0    0    -1  
$EndComp
$Comp
L Device:LED D?
U 1 1 607C265A
P 9300 1300
AR Path="/607A1840/607C265A" Ref="D?"  Part="1" 
AR Path="/607C265A" Ref="D2"  Part="1" 
F 0 "D2" V 9339 1182 50  0000 R CNN
F 1 "LED" V 9248 1182 50  0000 R CNN
F 2 "Diode_SMD:D_0603_1608Metric_Pad1.05x0.95mm_HandSolder" H 9300 1300 50  0001 C CNN
F 3 "~" H 9300 1300 50  0001 C CNN
	1    9300 1300
	0    -1   -1   0   
$EndComp
$Comp
L Device:LED D?
U 1 1 607C2660
P 6650 1300
AR Path="/607A1840/607C2660" Ref="D?"  Part="1" 
AR Path="/607C2660" Ref="D1"  Part="1" 
F 0 "D1" V 6689 1182 50  0000 R CNN
F 1 "LED" V 6598 1182 50  0000 R CNN
F 2 "Diode_SMD:D_0603_1608Metric_Pad1.05x0.95mm_HandSolder" H 6650 1300 50  0001 C CNN
F 3 "~" H 6650 1300 50  0001 C CNN
	1    6650 1300
	0    -1   -1   0   
$EndComp
$Comp
L Device:CP C5
U 1 1 607C266C
P 8900 1450
AR Path="/607C266C" Ref="C5"  Part="1" 
AR Path="/5F566C93/607C266C" Ref="C?"  Part="1" 
AR Path="/606D5C77/607C266C" Ref="C?"  Part="1" 
AR Path="/606F48D8/607C266C" Ref="C?"  Part="1" 
AR Path="/607A1840/607C266C" Ref="C?"  Part="1" 
F 0 "C5" H 9018 1496 50  0000 L CNN
F 1 "10u" H 9018 1405 50  0000 L CNN
F 2 "Capacitor_SMD:C_0805_2012Metric_Pad1.15x1.40mm_HandSolder" H 8938 1300 50  0001 C CNN
F 3 "~" H 8900 1450 50  0001 C CNN
	1    8900 1450
	1    0    0    -1  
$EndComp
$Comp
L Device:CP C1
U 1 1 607C2672
P 7050 1450
AR Path="/607C2672" Ref="C1"  Part="1" 
AR Path="/5F566C93/607C2672" Ref="C?"  Part="1" 
AR Path="/606D5C77/607C2672" Ref="C?"  Part="1" 
AR Path="/606F48D8/607C2672" Ref="C?"  Part="1" 
AR Path="/607A1840/607C2672" Ref="C?"  Part="1" 
F 0 "C1" H 7168 1496 50  0000 L CNN
F 1 "10u" H 7168 1405 50  0000 L CNN
F 2 "Capacitor_SMD:C_0805_2012Metric_Pad1.15x1.40mm_HandSolder" H 7088 1300 50  0001 C CNN
F 3 "~" H 7050 1450 50  0001 C CNN
	1    7050 1450
	1    0    0    -1  
$EndComp
Wire Wire Line
	7050 1700 7050 1600
Wire Wire Line
	8100 1850 8100 1700
Wire Wire Line
	8500 1700 8900 1700
Wire Wire Line
	8900 1700 8900 1600
$Comp
L power:GND #PWR08
U 1 1 607C2689
P 8100 1850
AR Path="/607C2689" Ref="#PWR08"  Part="1" 
AR Path="/5F566C93/607C2689" Ref="#PWR?"  Part="1" 
AR Path="/606D5C77/607C2689" Ref="#PWR?"  Part="1" 
AR Path="/606F48D8/607C2689" Ref="#PWR?"  Part="1" 
AR Path="/607A1840/607C2689" Ref="#PWR?"  Part="1" 
F 0 "#PWR08" H 8100 1600 50  0001 C CNN
F 1 "GND" H 8105 1677 50  0000 C CNN
F 2 "" H 8100 1850 50  0001 C CNN
F 3 "" H 8100 1850 50  0001 C CNN
	1    8100 1850
	1    0    0    -1  
$EndComp
Wire Wire Line
	9300 1100 8900 1100
Connection ~ 9300 1100
Connection ~ 8900 1100
Wire Wire Line
	7050 1100 6650 1100
Wire Notes Line
	6500 2250 9950 2250
Wire Notes Line
	9950 2250 9950 550 
Wire Notes Line
	9950 550  6500 550 
Wire Notes Line
	6500 550  6500 2250
Text Label 9500 1100 0    50   ~ 0
Vcc_3.3V
Text Label 6750 1000 0    50   ~ 0
Vcc_5V
Wire Wire Line
	6750 1000 6650 1000
Wire Wire Line
	6650 1000 6650 1100
Connection ~ 6650 1100
Text Label 7050 3000 2    50   ~ 0
SBWTDIO_RST
Wire Wire Line
	7050 3000 7150 3000
Wire Notes Line
	6500 3750 6500 2350
Text Notes 6550 3700 0    50   ~ 0
Programmer Header 
$Comp
L Device:C C?
U 1 1 607B1691
P 7150 3150
AR Path="/606CD10D/607B1691" Ref="C?"  Part="1" 
AR Path="/607B1691" Ref="C2"  Part="1" 
AR Path="/606F48D8/607B1691" Ref="C?"  Part="1" 
F 0 "C2" H 7265 3196 50  0000 L CNN
F 1 "1n" H 7265 3105 50  0000 L CNN
F 2 "Capacitor_SMD:C_0603_1608Metric_Pad1.05x0.95mm_HandSolder" H 7188 3000 50  0001 C CNN
F 3 "~" H 7150 3150 50  0001 C CNN
	1    7150 3150
	1    0    0    -1  
$EndComp
$Comp
L Device:R R?
U 1 1 607B16A7
P 7150 2750
AR Path="/606CD10D/607B16A7" Ref="R?"  Part="1" 
AR Path="/607B16A7" Ref="R2"  Part="1" 
AR Path="/606F48D8/607B16A7" Ref="R?"  Part="1" 
F 0 "R2" H 7220 2796 50  0000 L CNN
F 1 "47k" H 7220 2705 50  0000 L CNN
F 2 "Resistor_SMD:R_0603_1608Metric_Pad1.05x0.95mm_HandSolder" V 7080 2750 50  0001 C CNN
F 3 "~" H 7150 2750 50  0001 C CNN
	1    7150 2750
	1    0    0    -1  
$EndComp
$Comp
L Device:Crystal_Small Y1
U 1 1 609364CD
P 10550 850
F 0 "Y1" H 10550 1075 50  0000 C CNN
F 1 "OSC 32.768kHz" H 10550 984 50  0000 C CNN
F 2 "Crystal:Crystal_SMD_MicroCrystal_CC7V-T1A-2Pin_3.2x1.5mm" H 10550 850 50  0001 C CNN
F 3 "https://pl.mouser.com/datasheet/2/530/cm7v-t1a-1085727.pdf" H 10550 850 50  0001 C CNN
F 4 "CM7V-T1A-32.768kHz-7pF-100PPM-TA-QC" H 10550 850 50  0001 C CNN "MPN"
	1    10550 850 
	1    0    0    -1  
$EndComp
$Comp
L Device:C C7
U 1 1 609377F9
P 10750 1050
F 0 "C7" H 10865 1096 50  0000 L CNN
F 1 "9p" H 10865 1005 50  0000 L CNN
F 2 "Capacitor_SMD:C_0603_1608Metric_Pad1.05x0.95mm_HandSolder" H 10788 900 50  0001 C CNN
F 3 "~" H 10750 1050 50  0001 C CNN
	1    10750 1050
	1    0    0    -1  
$EndComp
$Comp
L Device:C C6
U 1 1 609380F9
P 10350 1050
F 0 "C6" H 10465 1096 50  0000 L CNN
F 1 "9p" H 10465 1005 50  0000 L CNN
F 2 "Capacitor_SMD:C_0603_1608Metric_Pad1.05x0.95mm_HandSolder" H 10388 900 50  0001 C CNN
F 3 "~" H 10350 1050 50  0001 C CNN
	1    10350 1050
	1    0    0    -1  
$EndComp
$Comp
L power:GND #PWR?
U 1 1 60938454
P 10350 1200
AR Path="/606CD10D/60938454" Ref="#PWR?"  Part="1" 
AR Path="/60938454" Ref="#PWR012"  Part="1" 
AR Path="/606F48D8/60938454" Ref="#PWR?"  Part="1" 
F 0 "#PWR012" H 10350 950 50  0001 C CNN
F 1 "GND" H 10355 1027 50  0000 C CNN
F 2 "" H 10350 1200 50  0001 C CNN
F 3 "" H 10350 1200 50  0001 C CNN
	1    10350 1200
	1    0    0    -1  
$EndComp
$Comp
L power:GND #PWR?
U 1 1 60938901
P 10750 1200
AR Path="/606CD10D/60938901" Ref="#PWR?"  Part="1" 
AR Path="/60938901" Ref="#PWR013"  Part="1" 
AR Path="/606F48D8/60938901" Ref="#PWR?"  Part="1" 
F 0 "#PWR013" H 10750 950 50  0001 C CNN
F 1 "GND" H 10755 1027 50  0000 C CNN
F 2 "" H 10750 1200 50  0001 C CNN
F 3 "" H 10750 1200 50  0001 C CNN
	1    10750 1200
	1    0    0    -1  
$EndComp
Wire Wire Line
	10750 900  10750 850 
Wire Wire Line
	10750 850  10650 850 
Wire Wire Line
	10450 850  10350 850 
Wire Wire Line
	10350 850  10350 900 
Text Label 10850 850  0    50   ~ 0
XOUT
Text Label 10250 850  2    50   ~ 0
XIN
Wire Wire Line
	10850 850  10750 850 
Connection ~ 10750 850 
Wire Wire Line
	10350 850  10250 850 
Connection ~ 10350 850 
Wire Notes Line
	10050 550  11100 550 
Wire Notes Line
	11100 1600 10050 1600
Text Notes 10100 1550 0    50   ~ 0
Oscilator 32.768kHz\n
Wire Notes Line
	11100 550  11100 1600
Wire Notes Line
	10050 550  10050 1600
Wire Notes Line
	550  550  6400 550 
Wire Notes Line
	550  4250 6400 4250
Text Label 5050 4750 0    50   ~ 0
PIN_1
Text Label 5050 4850 0    50   ~ 0
PIN_2
Text Label 5050 6250 0    50   ~ 0
Vcc_3.3V
Wire Wire Line
	5050 6350 4950 6350
Wire Wire Line
	4950 6250 5050 6250
Wire Wire Line
	5050 6150 4950 6150
Wire Wire Line
	4950 6050 5050 6050
Wire Wire Line
	5050 5950 4950 5950
Wire Wire Line
	4950 5850 5050 5850
Wire Wire Line
	5050 5750 4950 5750
Wire Wire Line
	4950 5650 5050 5650
Wire Wire Line
	5050 5550 4950 5550
Wire Wire Line
	4950 5450 5050 5450
Wire Wire Line
	5050 5350 4950 5350
Wire Wire Line
	4950 5250 5050 5250
Wire Wire Line
	5050 5150 4950 5150
Wire Wire Line
	4950 5050 5050 5050
Wire Wire Line
	5050 4950 4950 4950
Wire Wire Line
	4950 4850 5050 4850
Wire Wire Line
	5050 4750 4950 4750
Text Label 6150 6250 2    50   ~ 0
Vcc_5V
Wire Wire Line
	6150 6250 6250 6250
Wire Wire Line
	6150 6450 6250 6450
Wire Wire Line
	6250 4550 6150 4550
Wire Wire Line
	6150 4650 6250 4650
Wire Wire Line
	6250 4750 6150 4750
Wire Wire Line
	6150 4850 6250 4850
Wire Wire Line
	6250 4950 6150 4950
Wire Wire Line
	6150 5050 6250 5050
Wire Wire Line
	6250 5150 6150 5150
Wire Wire Line
	6150 5250 6250 5250
Wire Wire Line
	6250 5350 6150 5350
Wire Wire Line
	6150 5450 6250 5450
Wire Wire Line
	6250 5550 6150 5550
Wire Wire Line
	6150 5650 6250 5650
Wire Wire Line
	6250 5750 6150 5750
Wire Wire Line
	6150 5850 6250 5850
Wire Wire Line
	6250 5950 6150 5950
Wire Wire Line
	6150 6050 6250 6050
Wire Wire Line
	6250 6150 6150 6150
Wire Notes Line
	6550 6750 4500 6750
Wire Notes Line
	4500 4350 4500 6750
Text Notes 4550 6700 0    50   ~ 0
Headers
Wire Notes Line
	550  7750 550  4350
Wire Notes Line
	4400 4350 4400 7750
Wire Wire Line
	1350 5400 1250 5400
Connection ~ 1900 5300
Wire Wire Line
	1850 5300 1900 5300
Wire Wire Line
	1900 5300 2550 5300
Wire Wire Line
	1900 4750 1900 5300
Wire Wire Line
	1900 4400 3050 4400
Wire Wire Line
	1900 4450 1900 4400
Wire Wire Line
	3050 4400 3350 4400
Connection ~ 3050 4400
Wire Wire Line
	3050 4900 3050 4400
Wire Wire Line
	3350 4400 3350 4450
Wire Wire Line
	2650 4450 2950 4450
Connection ~ 2650 4450
Wire Wire Line
	2350 4450 2650 4450
Connection ~ 2350 4450
Wire Wire Line
	2950 4450 2950 4900
Wire Wire Line
	2150 4450 2150 5500
Wire Wire Line
	2150 4450 2350 4450
$Comp
L Interface_USB:CP2102N-A01-GQFN28 U3
U 1 1 60C16FC6
P 3050 6200
AR Path="/60C16FC6" Ref="U3"  Part="1" 
AR Path="/5F56DC3A/60C16FC6" Ref="U?"  Part="1" 
F 0 "U3" H 3300 4900 50  0000 C CNN
F 1 "CP2102N-A01-GQFN28" H 3550 4800 50  0000 C CNN
F 2 "Package_DFN_QFN:QFN-28-1EP_5x5mm_P0.5mm_EP3.35x3.35mm" H 3500 5000 50  0001 L CNN
F 3 "https://www.silabs.com/documents/public/data-sheets/cp2102n-datasheet.pdf" H 3100 5450 50  0001 C CNN
	1    3050 6200
	1    0    0    -1  
$EndComp
$Comp
L Device:C C9
U 1 1 60C16FE4
P 2650 4600
F 0 "C9" H 2765 4646 50  0000 L CNN
F 1 "100n" H 2765 4555 50  0000 L CNN
F 2 "Capacitor_SMD:C_0603_1608Metric_Pad1.05x0.95mm_HandSolder" H 2688 4450 50  0001 C CNN
F 3 "~" H 2650 4600 50  0001 C CNN
	1    2650 4600
	1    0    0    -1  
$EndComp
$Comp
L power:GND #PWR017
U 1 1 60C16FEA
P 2650 4750
F 0 "#PWR017" H 2650 4500 50  0001 C CNN
F 1 "GND" H 2655 4577 50  0000 C CNN
F 2 "" H 2650 4750 50  0001 C CNN
F 3 "" H 2650 4750 50  0001 C CNN
	1    2650 4750
	1    0    0    -1  
$EndComp
$Comp
L Device:C C8
U 1 1 60C17006
P 2350 4600
F 0 "C8" H 2465 4646 50  0000 L CNN
F 1 "1u" H 2465 4555 50  0000 L CNN
F 2 "Capacitor_SMD:C_0603_1608Metric_Pad1.05x0.95mm_HandSolder" H 2388 4450 50  0001 C CNN
F 3 "~" H 2350 4600 50  0001 C CNN
	1    2350 4600
	1    0    0    -1  
$EndComp
$Comp
L power:GND #PWR016
U 1 1 60C1700C
P 2350 4750
F 0 "#PWR016" H 2350 4500 50  0001 C CNN
F 1 "GND" H 2355 4577 50  0000 C CNN
F 2 "" H 2350 4750 50  0001 C CNN
F 3 "" H 2350 4750 50  0001 C CNN
	1    2350 4750
	1    0    0    -1  
$EndComp
Wire Wire Line
	850  6000 950  6000
Wire Wire Line
	950  6100 950  6000
$Comp
L power:GND #PWR015
U 1 1 60C2FDDC
P 950 6100
AR Path="/60C2FDDC" Ref="#PWR015"  Part="1" 
AR Path="/5F566C93/60C2FDDC" Ref="#PWR?"  Part="1" 
F 0 "#PWR015" H 950 5850 50  0001 C CNN
F 1 "GND" H 955 5927 50  0000 C CNN
F 2 "" H 950 6100 50  0001 C CNN
F 3 "" H 950 6100 50  0001 C CNN
	1    950  6100
	1    0    0    -1  
$EndComp
$Comp
L Connector:USB_B_Micro J4
U 1 1 60C2FDD6
P 950 5600
AR Path="/60C2FDD6" Ref="J4"  Part="1" 
AR Path="/5F566C93/60C2FDD6" Ref="J?"  Part="1" 
F 0 "J4" H 1007 6067 50  0000 C CNN
F 1 "105017-0001 MOLEX" H 1007 5976 50  0000 C CNN
F 2 "RedPill:USB_Micro-B_Molex-105017-0001" H 1100 5550 50  0001 C CNN
F 3 "~" H 1100 5550 50  0001 C CNN
	1    950  5600
	1    0    0    -1  
$EndComp
Wire Wire Line
	2150 5500 2550 5500
Wire Wire Line
	3750 5400 3550 5400
Wire Wire Line
	3750 5300 3550 5300
Text Label 3750 5300 0    50   ~ 0
PIN_31
Text Label 3750 5400 0    50   ~ 0
PIN_32
$Comp
L power:GND #PWR018
U 1 1 60C16FF6
P 3050 7500
F 0 "#PWR018" H 3050 7250 50  0001 C CNN
F 1 "GND" H 3055 7327 50  0000 C CNN
F 2 "" H 3050 7500 50  0001 C CNN
F 3 "" H 3050 7500 50  0001 C CNN
	1    3050 7500
	1    0    0    -1  
$EndComp
Text Label 1850 5300 2    50   ~ 0
RST
$Comp
L Device:R R5
U 1 1 60C16FDB
P 1900 4600
F 0 "R5" H 1970 4646 50  0000 L CNN
F 1 "4.7k" H 1970 4555 50  0000 L CNN
F 2 "Resistor_SMD:R_0603_1608Metric_Pad1.05x0.95mm_HandSolder" V 1830 4600 50  0001 C CNN
F 3 "~" H 1900 4600 50  0001 C CNN
	1    1900 4600
	1    0    0    -1  
$EndComp
$Comp
L power:GND #PWR019
U 1 1 60C16FD4
P 3350 4750
F 0 "#PWR019" H 3350 4500 50  0001 C CNN
F 1 "GND" H 3355 4577 50  0000 C CNN
F 2 "" H 3350 4750 50  0001 C CNN
F 3 "" H 3350 4750 50  0001 C CNN
	1    3350 4750
	1    0    0    -1  
$EndComp
$Comp
L Device:C C10
U 1 1 60C16FCE
P 3350 4600
F 0 "C10" H 3465 4646 50  0000 L CNN
F 1 "100n" H 3465 4555 50  0000 L CNN
F 2 "Capacitor_SMD:C_0603_1608Metric_Pad1.05x0.95mm_HandSolder" H 3388 4450 50  0001 C CNN
F 3 "~" H 3350 4600 50  0001 C CNN
	1    3350 4600
	1    0    0    -1  
$EndComp
Connection ~ 950  6000
Text Notes 3750 5200 0    50   ~ 0
MCU_UART_TXD
Text Notes 3750 5500 0    50   ~ 0
MCU_UART_RXD
Wire Notes Line
	200  4350 4400 4350
Wire Notes Line
	550  7750 4400 7750
Text Notes 600  7700 0    50   ~ 0
USB-UART Bridge
$Comp
L Regulator_Linear:LP5907MFX-3.3 U2
U 1 1 607F3FC3
P 8100 1200
F 0 "U2" H 8100 1567 50  0000 C CNN
F 1 "LP5907MFX-3.3" H 8100 1476 50  0000 C CNN
F 2 "Package_TO_SOT_SMD:SOT-23-5" H 8100 1550 50  0001 C CNN
F 3 "http://www.ti.com/lit/ds/symlink/lp5907.pdf" H 8100 1700 50  0001 C CNN
	1    8100 1200
	1    0    0    -1  
$EndComp
Connection ~ 8100 1700
Wire Wire Line
	8100 1700 8500 1700
Wire Wire Line
	7550 1700 8100 1700
Wire Wire Line
	8100 1700 8100 1500
Wire Wire Line
	7550 1100 7750 1100
Wire Wire Line
	7800 1200 7750 1200
Wire Wire Line
	7750 1200 7750 1100
Connection ~ 7750 1100
Wire Wire Line
	7750 1100 7800 1100
Wire Wire Line
	8400 1100 8500 1100
Connection ~ 8500 1100
Text Label 6150 6450 2    50   ~ 0
Vcc_3.3V
Wire Wire Line
	5800 6350 6250 6350
$Comp
L power:GND #PWR?
U 1 1 60AC782F
P 5800 6350
AR Path="/606CD10D/60AC782F" Ref="#PWR?"  Part="1" 
AR Path="/60AC782F" Ref="#PWR03"  Part="1" 
AR Path="/606F48D8/60AC782F" Ref="#PWR?"  Part="1" 
F 0 "#PWR03" H 5800 6100 50  0001 C CNN
F 1 "GND" H 5805 6177 50  0000 C CNN
F 2 "" H 5800 6350 50  0001 C CNN
F 3 "" H 5800 6350 50  0001 C CNN
	1    5800 6350
	0    1    1    0   
$EndComp
$Comp
L Connector:Conn_01x20_Male J1
U 1 1 6085C2EF
P 4750 5450
F 0 "J1" H 4858 6439 50  0000 C CNN
F 1 "Conn_01x20_Male" H 4858 6440 50  0001 C CNN
F 2 "Connector_PinHeader_2.54mm:PinHeader_1x20_P2.54mm_Vertical" H 4750 5450 50  0001 C CNN
F 3 "~" H 4750 5450 50  0001 C CNN
	1    4750 5450
	1    0    0    -1  
$EndComp
$Comp
L Connector:Conn_01x20_Male J2
U 1 1 6085F076
P 6450 5550
F 0 "J2" H 6558 6539 50  0000 C CNN
F 1 "Conn_01x20_Male" H 6558 6540 50  0001 C CNN
F 2 "Connector_PinHeader_2.54mm:PinHeader_1x20_P2.54mm_Vertical" H 6450 5550 50  0001 C CNN
F 3 "~" H 6450 5550 50  0001 C CNN
	1    6450 5550
	-1   0    0    1   
$EndComp
Text Label 5850 1400 0    50   ~ 0
PIN_23
Text Label 5850 1800 0    50   ~ 0
PIN_9
Wire Wire Line
	5750 2000 5850 2000
Wire Wire Line
	5850 1900 5750 1900
$Comp
L RedPill_Lib:MSP430FR2355TRHAR U1
U 1 1 60A7A760
P 3500 2300
F 0 "U1" H 3500 3988 60  0000 C CNN
F 1 "MSP430FR2355TRHAR" H 3500 3882 60  0000 C CNN
F 2 "Package_DFN_QFN:QFN-40-1EP_6x6mm_P0.5mm_EP4.6x4.6mm" H 3500 2240 60  0001 C CNN
F 3 "" H 3500 2300 60  0000 C CNN
	1    3500 2300
	1    0    0    -1  
$EndComp
$Comp
L power:GND #PWR?
U 1 1 60956F5C
P 5850 3700
AR Path="/606CD10D/60956F5C" Ref="#PWR?"  Part="1" 
AR Path="/60956F5C" Ref="#PWR05"  Part="1" 
AR Path="/606F48D8/60956F5C" Ref="#PWR?"  Part="1" 
F 0 "#PWR05" H 5850 3450 50  0001 C CNN
F 1 "GND" H 5855 3527 50  0000 C CNN
F 2 "" H 5850 3700 50  0001 C CNN
F 3 "" H 5850 3700 50  0001 C CNN
	1    5850 3700
	1    0    0    -1  
$EndComp
Wire Wire Line
	5750 900  5850 900 
Wire Wire Line
	5850 1100 5750 1100
Wire Wire Line
	5750 2400 5850 2400
Wire Wire Line
	5850 2500 5750 2500
Wire Wire Line
	5750 3400 5850 3400
Wire Wire Line
	900  1000 1000 1000
Text Label 5850 2500 0    50   ~ 0
TXD
Text Label 5850 2400 0    50   ~ 0
RXD
Text Label 5850 1100 0    50   ~ 0
SBWTDIO_RST
Text Label 5850 900  0    50   ~ 0
SBWTCK
Text Label 5850 2000 0    50   ~ 0
XIN
Text Label 5850 1900 0    50   ~ 0
XOUT
Text Label 900  1000 2    50   ~ 0
Vcc_3.3V
Wire Wire Line
	1000 1400 900  1400
Wire Wire Line
	900  1500 1000 1500
Wire Wire Line
	1000 1600 900  1600
Wire Wire Line
	900  1700 1000 1700
Wire Wire Line
	1000 1800 900  1800
Wire Wire Line
	900  1900 1000 1900
Wire Wire Line
	1000 2000 900  2000
Wire Wire Line
	900  2100 1000 2100
Wire Wire Line
	900  2300 1000 2300
Wire Wire Line
	1000 2400 900  2400
Wire Wire Line
	900  2500 1000 2500
Wire Wire Line
	1000 2600 900  2600
Wire Wire Line
	900  2700 1000 2700
Wire Wire Line
	1000 2800 900  2800
Wire Wire Line
	900  2900 1000 2900
Wire Wire Line
	1000 3000 900  3000
Wire Wire Line
	900  3200 1000 3200
Wire Wire Line
	1000 3300 900  3300
Wire Notes Line
	6550 4350 6550 6750
Wire Notes Line
	4500 4350 6550 4350
Wire Wire Line
	5850 3200 5750 3200
Wire Wire Line
	5750 3100 5850 3100
Wire Wire Line
	5850 2900 5750 2900
Wire Wire Line
	5750 2800 5850 2800
Wire Wire Line
	5850 2700 5750 2700
Wire Wire Line
	5750 2600 5850 2600
Wire Wire Line
	5850 2200 5750 2200
Wire Wire Line
	5750 2300 5850 2300
Wire Wire Line
	5750 1800 5850 1800
Wire Wire Line
	5750 1700 5850 1700
Wire Wire Line
	5850 1600 5750 1600
Wire Wire Line
	5750 1500 5850 1500
Wire Wire Line
	5850 1400 5750 1400
Wire Wire Line
	5750 1300 5850 1300
Wire Wire Line
	5850 3400 5850 3600
Wire Wire Line
	5750 3600 5850 3600
Connection ~ 5850 3600
Wire Wire Line
	5850 3600 5850 3700
Text Label 6150 5150 2    50   ~ 0
PIN_34
Text Label 6150 5250 2    50   ~ 0
PIN_33
Text Label 6150 5350 2    50   ~ 0
PIN_32
Text Label 6150 5450 2    50   ~ 0
PIN_31
Text Label 6150 5550 2    50   ~ 0
PIN_30
Text Label 6150 5650 2    50   ~ 0
PIN_29
Text Label 6150 5750 2    50   ~ 0
PIN_28
Text Label 6150 5850 2    50   ~ 0
PIN_27
Text Label 6150 4750 2    50   ~ 0
PIN_38
Text Label 6150 4850 2    50   ~ 0
PIN_37
Text Label 6150 4950 2    50   ~ 0
PIN_36
Text Label 6150 5050 2    50   ~ 0
PIN_35
Text Label 6150 5950 2    50   ~ 0
PIN_26
Text Label 6150 6050 2    50   ~ 0
PIN_25
Text Label 6150 4550 2    50   ~ 0
PIN_40
Text Label 6150 4650 2    50   ~ 0
PIN_39
Text Label 5050 5150 0    50   ~ 0
PIN_11
Text Label 5050 5050 0    50   ~ 0
PIN_10
Text Label 5050 5550 0    50   ~ 0
PIN_15
Text Label 5050 5450 0    50   ~ 0
PIN_14
Text Label 5050 5350 0    50   ~ 0
PIN_13
Text Label 5050 5250 0    50   ~ 0
PIN_12
Text Label 5050 6050 0    50   ~ 0
PIN_22
Text Label 5050 5950 0    50   ~ 0
PIN_21
Text Label 5050 5850 0    50   ~ 0
PIN_20
Text Label 5050 5750 0    50   ~ 0
PIN_19
Text Label 6150 6150 2    50   ~ 0
PIN_24
Text Label 5050 5650 0    50   ~ 0
PIN_16
Text Label 5050 6150 0    50   ~ 0
PIN_23
Text Label 5050 4950 0    50   ~ 0
PIN_9
$Comp
L power:GND #PWR?
U 1 1 60D0798E
P 5050 6500
AR Path="/606CD10D/60D0798E" Ref="#PWR?"  Part="1" 
AR Path="/60D0798E" Ref="#PWR0101"  Part="1" 
AR Path="/606F48D8/60D0798E" Ref="#PWR?"  Part="1" 
F 0 "#PWR0101" H 5050 6250 50  0001 C CNN
F 1 "GND" H 5055 6327 50  0000 C CNN
F 2 "" H 5050 6500 50  0001 C CNN
F 3 "" H 5050 6500 50  0001 C CNN
	1    5050 6500
	1    0    0    -1  
$EndComp
Wire Wire Line
	5050 6500 5050 6450
Wire Wire Line
	5050 6450 4950 6450
Wire Wire Line
	5050 6350 5050 6450
Connection ~ 5050 6450
$Comp
L power:GND #PWR?
U 1 1 60D27B10
P 5200 4550
AR Path="/606CD10D/60D27B10" Ref="#PWR?"  Part="1" 
AR Path="/60D27B10" Ref="#PWR0102"  Part="1" 
AR Path="/606F48D8/60D27B10" Ref="#PWR?"  Part="1" 
F 0 "#PWR0102" H 5200 4300 50  0001 C CNN
F 1 "GND" H 5205 4377 50  0000 C CNN
F 2 "" H 5200 4550 50  0001 C CNN
F 3 "" H 5200 4550 50  0001 C CNN
	1    5200 4550
	0    -1   -1   0   
$EndComp
Wire Wire Line
	4950 4550 5050 4550
Wire Wire Line
	4950 4650 5050 4650
Wire Wire Line
	5050 4650 5050 4550
Connection ~ 5050 4550
Wire Wire Line
	5050 4550 5200 4550
$Comp
L Connector_Generic:Conn_02x04_Counter_Clockwise J3
U 1 1 6081CFE3
P 8800 2950
F 0 "J3" H 8850 3267 50  0000 C CNN
F 1 "Conn_02x04_Counter_Clockwise" H 8850 3176 50  0000 C CNN
F 2 "Connector_PinHeader_2.54mm:PinHeader_2x04_P2.54mm_Vertical" H 8800 2950 50  0001 C CNN
F 3 "~" H 8800 2950 50  0001 C CNN
	1    8800 2950
	1    0    0    -1  
$EndComp
Text Label 8600 2850 2    50   ~ 0
SBWTCK
Text Label 8600 3050 2    50   ~ 0
SBWTDIO_RST
Text Label 9100 3150 0    50   ~ 0
TXD
Text Label 9100 3050 0    50   ~ 0
Vcc_3.3V
Text Label 9100 2950 0    50   ~ 0
RXD
Text Label 9100 2850 0    50   ~ 0
Vcc_5V
$Comp
L power:GND #PWR?
U 1 1 6085494C
P 8550 3200
AR Path="/606CD10D/6085494C" Ref="#PWR?"  Part="1" 
AR Path="/6085494C" Ref="#PWR01"  Part="1" 
AR Path="/606F48D8/6085494C" Ref="#PWR?"  Part="1" 
F 0 "#PWR01" H 8550 2950 50  0001 C CNN
F 1 "GND" H 8555 3027 50  0000 C CNN
F 2 "" H 8550 3200 50  0001 C CNN
F 3 "" H 8550 3200 50  0001 C CNN
	1    8550 3200
	1    0    0    -1  
$EndComp
Wire Notes Line
	9500 2350 9500 3750
Wire Notes Line
	6500 3750 9500 3750
Wire Notes Line
	6500 2350 9500 2350
Wire Wire Line
	8550 3200 8550 3150
Wire Wire Line
	8550 3150 8600 3150
Wire Wire Line
	8600 2950 8550 2950
Wire Wire Line
	8550 2950 8550 3150
Connection ~ 8550 3150
Wire Wire Line
	1250 6000 950  6000
Wire Wire Line
	1250 5800 1250 6000
Wire Wire Line
	1350 5400 1350 5350
Text Label 1300 6350 2    50   ~ 0
Vcc_5V
Wire Wire Line
	2100 5500 2150 5500
Connection ~ 2150 5500
$Comp
L power:GND #PWR04
U 1 1 609E1851
P 1300 7150
AR Path="/609E1851" Ref="#PWR04"  Part="1" 
AR Path="/5F566C93/609E1851" Ref="#PWR?"  Part="1" 
F 0 "#PWR04" H 1300 6900 50  0001 C CNN
F 1 "GND" H 1305 6977 50  0000 C CNN
F 2 "" H 1300 7150 50  0001 C CNN
F 3 "" H 1300 7150 50  0001 C CNN
	1    1300 7150
	1    0    0    -1  
$EndComp
Wire Wire Line
	1300 6350 1300 6400
Wire Wire Line
	1300 7150 1300 7100
Wire Wire Line
	1300 6800 1300 6750
Text Label 1350 6750 0    50   ~ 0
V_BUS_CP
Wire Wire Line
	1350 6750 1300 6750
Connection ~ 1300 6750
Wire Wire Line
	1300 6750 1300 6700
Text Label 2100 5450 2    50   ~ 0
V_BUS_CP
Wire Wire Line
	2100 5500 2100 5450
$Comp
L Device:R R6
U 1 1 609BEC2E
P 1300 6950
F 0 "R6" H 1370 6996 50  0000 L CNN
F 1 "47.4k" H 1370 6905 50  0000 L CNN
F 2 "Resistor_SMD:R_0603_1608Metric_Pad0.98x0.95mm_HandSolder" V 1230 6950 50  0001 C CNN
F 3 "~" H 1300 6950 50  0001 C CNN
	1    1300 6950
	1    0    0    -1  
$EndComp
$Comp
L Device:R R4
U 1 1 609B2F81
P 1300 6550
F 0 "R4" H 1370 6596 50  0000 L CNN
F 1 "22.1k" H 1370 6505 50  0000 L CNN
F 2 "Resistor_SMD:R_0603_1608Metric_Pad0.98x0.95mm_HandSolder" V 1230 6550 50  0001 C CNN
F 3 "~" H 1300 6550 50  0001 C CNN
	1    1300 6550
	1    0    0    -1  
$EndComp
Text Label 1350 5350 0    50   ~ 0
Vcc_5V
Wire Wire Line
	1250 5700 1900 5700
Wire Wire Line
	1250 5600 1450 5600
$Comp
L Device:D_TVS D3
U 1 1 60B38318
P 1450 5900
F 0 "D3" V 1404 5980 50  0000 L CNN
F 1 "D_TVS" V 1495 5980 50  0000 L CNN
F 2 "Diode_SMD:D_0402_1005Metric_Pad0.77x0.64mm_HandSolder" H 1450 5900 50  0001 C CNN
F 3 "~" H 1450 5900 50  0001 C CNN
F 4 "SP0402B-ULC-01ETG" V 1450 5900 50  0001 C CNN "MPN"
	1    1450 5900
	0    1    1    0   
$EndComp
$Comp
L power:GND #PWR02
U 1 1 60B4362B
P 1450 6100
AR Path="/60B4362B" Ref="#PWR02"  Part="1" 
AR Path="/5F566C93/60B4362B" Ref="#PWR?"  Part="1" 
F 0 "#PWR02" H 1450 5850 50  0001 C CNN
F 1 "GND" H 1455 5927 50  0000 C CNN
F 2 "" H 1450 6100 50  0001 C CNN
F 3 "" H 1450 6100 50  0001 C CNN
	1    1450 6100
	1    0    0    -1  
$EndComp
$Comp
L power:GND #PWR09
U 1 1 60B4DE84
P 1900 6100
AR Path="/60B4DE84" Ref="#PWR09"  Part="1" 
AR Path="/5F566C93/60B4DE84" Ref="#PWR?"  Part="1" 
F 0 "#PWR09" H 1900 5850 50  0001 C CNN
F 1 "GND" H 1905 5927 50  0000 C CNN
F 2 "" H 1900 6100 50  0001 C CNN
F 3 "" H 1900 6100 50  0001 C CNN
	1    1900 6100
	1    0    0    -1  
$EndComp
Wire Wire Line
	1450 6100 1450 6050
Wire Wire Line
	1900 6100 1900 6050
Wire Wire Line
	1900 5750 1900 5700
Connection ~ 1900 5700
Wire Wire Line
	1900 5700 2550 5700
Wire Wire Line
	1450 5750 1450 5600
Connection ~ 1450 5600
Wire Wire Line
	1450 5600 2550 5600
$Comp
L Device:D_TVS D4
U 1 1 60B8F647
P 1900 5900
F 0 "D4" V 1854 5980 50  0000 L CNN
F 1 "D_TVS" V 1945 5980 50  0000 L CNN
F 2 "Diode_SMD:D_0402_1005Metric_Pad0.77x0.64mm_HandSolder" H 1900 5900 50  0001 C CNN
F 3 "~" H 1900 5900 50  0001 C CNN
F 4 "SP0402B-ULC-01ETG" V 1900 5900 50  0001 C CNN "MPN"
	1    1900 5900
	0    1    1    0   
$EndComp
$EndSCHEMATC
